Entreprise;Année;Chiffre d'Affaires;Résultat net;EBIT;EBITDA;Total bilan;Fonds propres;Dette Financière Nette (DFN);Part du CA Production d'électricité dans le CA total (%);Part du CA réalisé à l'international (%);Part du CA réalisé hors UE;La ventilation du CA est-elle présentée ? ;La répartition du CA par capacité de production est-elle affichée ? ;Capitalisation (31/12/201x) (M€);Actionnariat (%) Etat et affilié;Actionnariat (%) Privé flottant;Actionnariat (%) Privé stable (autre);Capacité installée (GW)Thermique;Capacité installée (GW) Nucléaire;Capacité installée (GW) EnR;Capacité installée (GW) Hydroélectrique;Nombre d'employés (nb);Electricité produite (TWh) Thermique_1;Electricité produite (TWh) Nucléaire_2;Electricité produite (TWh) EnR_3;Electricité produite (TWh) Hydroélectrique_4;VAR EBITDA
Centrica;2013;31353,78;1121;1945,82;2232,56;28135,2;6308,4;6058,8;0,76;0,34;0,31;;;;0,02;0,96;0,03;;;;;34489;12,04;12,04;0,75;0;-1%
SSE;2013;36090,3;526,28;678,85;1001,58;25217,16;6143,4;8817,24;0;0;0;;;;0;0,84;0,16;8,34;0;2,14;1,15;19894;26,7;0;5,45;3,75;5%
EnBW;2013;21373,1;122,3;1020,4;1991,4;36140,5;6082,7;8548;0,26;0;0;;;;;;;7,83;3,33;0,28;2,36;19844;27,85;23,23;7,48;0;13%
EDF;2013;75594;3517;8411;16765;256801;38870;35462;0,95;0,47;0,12;;;;0,84;0,14;0,02;37,65;74,77;5,95;21,98;158467;97,45;487,1;13,86;55,49;9%
Fortum;2013;6056;1279;1712;1975;24420;10662;7849;0,54;0,26;0,22;;;14774;0,51;;0,32;5,83;3,28;1,44;4,59;9186;24,5;23,7;1,2;18;11%
CEZ Group;2013;7912,05;1284,78;1668,37;2991,94;23377,79;9594,35;0;0,87;0,2;0,03;;;;0,7;0,07;0,23;8,21;4,29;0,74;1,96;26582;31,22;30,75;1,99;2,67;-1%
Vattenfall;2013;19819,22;-1563,41;-744,94;5000,75;56153,07;15090,1;12342;0,59;0,72;0,04;;;;;;;19,01;6,98;1,89;11,23;31819;87,9;51,9;6,3;35,6;20%
Iberdrola;2013;32808;2572;2435;7205;92411;35361;28053,01;0,75;0,53;0,22;;;28922;;;;11,19;3,17;13,97;9,37;30650;21,8;22,78;;15,83;0%
EDP;2013;16103,19;1193,52;2085;3617;42649,9;11528,56;0;0,89;0,19;0,18;;;;;;;6,55;0,16;7,92;7,22;12314;15,78;1,16;20,24;21,58;12%
RWE;2013;54070;-2757;5881;8762;81119;12137;10420;0,04;0,45;0,01;;;16200;0,15;0,84;0,01;41,64;3,9;2,85;0,64;64896;172,4;30,5;9,8;4;62%
EON;2013;122450;2510;5681;9315;130725;36285;32218;0,09;0,7;0,01;;;25600;0,72;;0,28;42,01;8,2;4,73;4,97;62239;158,3;56,1;14,9;15,9;15%
Engie;2013;89300;-8909;7828;13017;159611;53490;29840;0,72;0,61;0,21;;;;;;;57,4;5,74;4,1;14,76;147199;237,3;37,29;10,17;54,24;12%
Enel;2013;78663;4780;9740;16691;163865;52832;39682;0,71;0,59;0,15;;;29190;;;;55,94;5,13;6,34;29,84;71394;151,58;40,04;18,88;75,5;8%
Centrica;2014;36465,92;-1246,2;858,95;1152,46;29272,68;3961,59;6702,84;0,81;0,46;0,44;;;;0,02;0,96;0,03;;;;;37530;7,72;11,16;0,9;0;-1%
SSE;2014;36090,3;526,28;678,85;1001,58;25217,16;6143,4;8817,24;0;0;0;;;;0;0,78;0,22;8,34;0;2,24;1,15;19965;19,12;0;4,74;3,73;5%
Engie;2014;74686;3110;6720;12138;165305;55959;27511;0,74;0,63;0,24;;;;;;;85,32;5,77;4,61;20,75;152900;352,88;32,94;14,12;61,17;12%
EnBW;2014;21002,5;-387,6;0,1;1950;38213,1;4545,6;9794,5;0,27;0;0;;;;;;;7,78;3,33;0,27;2,36;20092;25,53;25,09;7,16;0;13%
EDF;2014;72874;3701;7984;17279;267989;40610;34208;0,76;0,45;0,14;;;;0,85;0,14;0,02;35,01;72,91;6,38;21,89;158161;81,1;477,7;13,2;51,5;9%
EDP;2014;16293,88;1263,81;2118;3642;42873,02;11969,14;0;0,87;0,22;0,2;;;;;;;6,38;0,16;8,27;6,87;11798;15,71;1,2;20,13;23,18;12%
Fortum;2014;4751;3161;3428;1873;21375;10864;4217;0,65;0,33;0,27;;;15964;0,51;;0,32;6,5;3,28;0,23;4,62;8592;26,3;23,8;1;22,3;11%
CEZ Group;2014;7237,4;809,09;1332,59;2614,9;22610,28;9192,1;5310,91;0,87;0,24;0,04;;;;0,7;0,07;0,24;9,93;4,29;0,76;3,14;26255;28,69;30,32;1,96;2,15;-1%
Vattenfall;2014;18234,91;-910,29;-241,2;4509,47;54550,68;14116,08;8733;0,56;0,72;0,03;;;;;;;19,99;6,97;1,85;11,2;30181;82,7;49,9;6,1;34,3;20%
Iberdrola;2014;30032,27;2326,52;3941;6965;93771,41;35791;25618,52;0,75;0,52;0,23;;;35746;;;0,2;16,77;3,17;13,29;9,49;29597;19,86;24,37;0;18,75;0%
RWE;2014;46149;1700;4017;7131;86316;11772;8519;0,05;0,43;0,01;;;15500;0,15;0,84;0,01;41,33;4,05;3,11;0,57;59784;166,5;31,7;6,7;3,4;62%
EON;2014;111556;-3130;4664;8337;125690;;33394;0,11;0,63;0,03;;;27400;0,76;;0,24;40,07;8,2;4,4;4,97;58503;130,6;55,4;14,9;14,3;15%
Enel;2014;75791;772;3087;15757;166634;51145;37383;0,63;0,62;0,17;;;35307;0,26;0,24;0,5;54,18;5,13;7,15;29,65;68961;147,21;39,63;21,18;75,08;8%
Centrica;2015;38543,53;-1218,14;2010,48;1810,67;25698,32;1828,59;6468,18;0,8;0,44;0,43;;;;;;;;;;;;6,11;12,13;0,88;0;-1%
SSE;2015;37415;760,7;1886;1903,8;28842,7;6782;8817,24;0,02;0;0;;;;;;;7,28;0;1,83;1,45;21118;18,08;0;5,37;4,33;5%
Engie;2015;69883;-5113;5854;11262;160658;48750;27727;0,71;0,64;0,25;;;;;;0,03;84,31;5,86;7,03;19,91;;368,55;29,48;19,66;73,71;12%
EnBW;2015;21266,5;200,5;277;1918,2;38158,2;5089,5;3329;0,23;0;0;;;;;;;6,94;2,93;0,7;2,36;20288;22,97;25,28;7,73;0;13%
Fortum;2015;3702;4142;4245;1265;22767;13863;-2195;0,7;0,37;0,29;;;12366;;;;5,63;3;0,43;4,62;8009;26;22,7;0;25,1;11%
EDF;2015;75006;1401;4280;17601;278941;34749;37395;0,73;0,47;0,16;;;;0,85;0,14;0,02;31,9;72,95;7,68;21,7;158200;79,6;482,7;13,5;43,5;9%
CEZ Group;2015;7776,76;760,3;1071,64;2409,03;22301,05;10096,24;4855,62;0,87;0,26;0,04;;;;0,7;0,09;0,21;9,81;4,29;0,76;3,12;25862;29,63;26,84;2,23;2,21;-1%
EDP;2015;15517;913;2443;3924;42537;12121;17380;0,88;0,5;0,21;;;;;;;7,1;0,16;9,33;7,78;12084;25,3;1,23;21,71;15,48;12%
Vattenfall;2015;15369,86;-2115,96;-542,64;3276,17;49491,19;12741,77;6873;0,55;0,7;-0,11;;;;;;;17,74;7,2;1,61;11,73;28567;84;42,2;7,4;39,4;20%
Iberdrola;2015;31418,69;2421,58;3829,29;7305,9;104664;40956;28067,13;0,74;0,54;0,25;;;27169;;;;16,83;3,17;14,19;10,39;27169;21,82;23,08;0;13,19;0%
EON;2015;114592;-6377;4369;7557;113693;19077;27714;0,09;0,65;0,01;;;17400;0,75;;0,25;30,54;6,63;3,97;3,73;56490;113,5;49,7;10,7;14,6;15%
RWE;2015;48599;284;3837;7017;79334;8884;7353;0,05;0,41;0,01;;;7100;0,15;0,84;0,01;39,85;4,05;4,15;;59350;169,9;31,7;8,4;3;62%
Enel;2015;75658;3372;7685;15000;161179;51751;37545;0,62;0,46;0,16;;;;;;;47,58;5,13;7,99;29,05;68381;159,9;39,9;23,34;65,94;8%
Centrica;2016;33335,46;2044,26;1863,45;2945,85;25615,98;3119,22;4063,41;;0,69;0,51;;;;;;;;;;;38278;10,09;13,03;0,54;0;-1%
SSE;2016;35112;562;2225;3283,5;26179;6156;8034;0,02;0,03;0;;;17818;0;;;7,33;0;1,86;1,45;21157;18,34;0;4,62;3,33;5%
Engie;2016;66639;163;5408;10689;158499;45447;24807;0,69;0,63;0,24;;;;0,31;0,65;0,05;80,02;6,76;6,76;19,16;153090;374,66;45,57;15,19;70,88;12%
Fortum;2016;3632;504;633;1015;21964;13542;-48;0,71;0,38;0,48;;;12944;;;;5,24;3,01;0,43;4,65;7994;26,2;24,1;0,1;20,7;11%
EnBW;2016;19368,4;-1672,5;1024;1938;38535,3;3216,2;3645;0,23;0;0;;;;;;;7,51;2,93;0,79;2,35;20409;21,63;21,02;8,26;1,72;13%
EDF;2016;71203;3011;7514;16414;281640;34438;37425;0,49;0,44;0,16;;;20420;0,83;0,16;0,01;32;75;9;21;154845;77;471;19;50,3;9%
CEZ Group;2016;7536,36;539,12;965,94;2148,42;23347,19;9672,83;5420,13;0,86;0,26;0,04;;;;0,7;0,1;0,2;;4,29;1,34;1,96;26895;30,69;24,1;3,99;2,35;-1%
EDP;2016;14595;961;2264;3759;44084;13736;15923;0,89;0,47;0,2;;;;;;;6,89;0,16;10,05;8,11;11992;23,06;1,24;24,47;21,14;12%
Vattenfall;2016;14702,22;-2746,37;141,21;2873,63;42723,82;8748,12;5295,22;0,71;0,66;0,06;;;;1;;;9,65;7,25;2,44;11,73;19935;30,8;46,9;6,5;34,8;20%
Iberdrola;2016;29215;2705;4554;7808;106706;40687;26926;0,72;0,52;0,2;;;30591;;;;17;3;14,2;10,3;30591;58,6;24;33,4;20,5;0%
RWE;2016;45833;-5484;3082;5403;76402;7990;1659;0,06;0,41;0,02;;;7100;0,13;0,86;0,01;38,34;4,05;4,02;;58652;171,1;30,1;11,1;3;62%
EON;2016;38173;904;3112;4939;63699;1287;26320;0,15;;;;;13100;0,74;;0,26;0;4,47;4,18;0;43138;0;32,4;14;0;15%
Enel;2016;70592;3787;8921;15276;155596;52575;37553;0,6;0,48;0,17;;;;;;;43,45;3,32;8,48;27,43;62080;142,39;33,44;25,94;60,03;8%
Centrica;2017;31584,81;781,08;1405,5;2414,25;23294,96;3042,05;2925,96;;0,67;0,49;;;;;;;;;;;34901;7,52;12,78;0,54;0;-1%
Engie;2017;59576;2108;5172;9199;150141;42122;22520;0,33;0,58;0,24;;;;0,26;0,68;0,06;68,81;6,16;8,22;19,51;150000;328,5;45;13,5;63;12%
SSE;2017;35195,37;1224,03;2061,13;3687,88;26494,68;5969,09;9561,94;0,02;0,03;0;;;;;;;7,33;0;2,38;1,45;20785;23,67;0;6;3,43;5%
EDF;2017;64892;3289;5637;13742;271842;41357;33015;0,55;0,45;0,17;;;30500;0,84;0,15;0,01;25,6;72,9;9,4;21,5;152033;77,1;447,7;15,7;40,3;9%
EnBW;2017;21974;2176,3;998,8;2113;38784,9;5862,9;2917,8;0,19;0;0;;;;;;;6,18;2,93;3,35;0,55;21352;22,65;17,53;8,29;1,72;13%
Fortum;2017;4520;882;1158;1275;21753;13287;988;0,68;0,37;;;;14658;0,51;0,14;0,35;5,53;2,81;0,7;4,67;8785;28;23;1,2;20,7;11%
CEZ Group;2017;7586,22;7586,22;7586,22;7586,22;7586,22;7586,22;7586,22;0,51;0,29;0,04;;;;0,7;0,1;0,21;7,71;4,29;0,88;1,99;29837;27,88;28,34;2;3,6;-1%
EDP;2017;15745,99;1113;2318;3990;42075,05;13480,26;13902;0,91;0,51;0,28;;;;;;;6,5;0,16;11,23;8,87;11657;29,72;1,24;27,86;11,19;12%
Vattenfall;2017;13190,09;925,85;1808,35;3358,1;39688,42;8956,79;5748,6;0,21;0,68;0,04;;;;;;;9,55;7,23;2,73;11,69;20041;31,9;51,9;8;35,6;20%
Iberdrola;2017;31263;2804;2712,6;7318,7;110688,6;42733,2;29784,8;0,96;0,55;0,55;;;40811;;;;16,16;3,18;16,3;12,82;34255;63,64;23,25;35,03;15,71;0%
Innogy;2017;43139;1149;2816;4331;46814;11252;12292;0,74;0,39;0;;;;;;;0,76;0;3,06;0,51;42393;1,1;0;7,7;2,5;-8%
EON;2017;37965;1427;3072;4955;55950;6708;19248;0,08;;;;;;0,78;;0,22;0;4,15;4,72;0;42699;0;27,5;12,5;0;15%
Enel;2017;74639;5329;9792;15653;155641;52161;37410;0,58;0,48;0,19;;;;;;;43,29;3,32;10,51;27,8;62900;141,73;26,45;26,33;55,36;8%
RWE;2017;13822;1900;1170;2149;69059;11991;6301;0,16;;;;;;0,86;0,13;0,01;33,4;2,77;4,15;2,96;59547;156,4;30,3;10,4;3,1;62%
Centrica;2018;32943,24;699,91;1544,01;2493,48;23064,95;2770,22;2531,23;;0,65;0,38;;;;;;;;;;;;2,3;11,82;0;0;-1%
CEZ Group;2018;7193,28;409,4;770,42;1931,41;27501,28;9301,86;5880,19;0,56;0,3;0,03;;;;0,7;0,1;0,2;7,81;4,29;0,87;1,99;31385;27,7;29,9;1,8;3,7;-1%
SSE;2018;8132,21;1583,94;1020,35;2077,75;28433,72;6553,94;10529,97;0,07;0,03;0;;;11505;;;;6,77;0;2,62;1,15;20000;21,06;0;6,46;3,32;5%
Engie;2018;60596;1629;5126;9236;153702;40941;21102;0,34;0,59;0,22;;;;0,25;0,7;0,05;69,88;6,26;8,34;19,82;160000;298,2;29,4;21;71,4;12%
EDF;2018;68976;1191;5282;15265;283169;44469;33388;;;;;;;0,84;0,15;0,01;22,4;72,9;9,6;21,5;165790;57,4;457,8;17,7;51,1;9%
EnBW;2018;20617,5;467,6;957,5;2157;39609;6273;3738,4;0,19;0;0;;;;;;;6,18;2,93;3,74;0,55;21775;22,63;20,66;8,41;1,79;13%
Fortum;2018;5242;858;1138;1523;22409;12077;5509;0,72;0,31;;;;;0,51;0,13;0,36;5,63;2,81;0,61;4,67;8286;32;22,8;0,4;19,1;11%
Iberdrola;2018;35076;3014;5439;9348;113038;44154;34149;0,85;0,52;0,52;;;44898;;;;15,94;3,2;15,68;12,53;34078;60,3;23,54;39,35;22,41;0%
EDP;2018;15278,09;519;1584;3317;41626,96;13736,37;13480;0,9;0,49;0,27;;;;;;;6,9;0,16;11,3;8,79;11631;23,11;1,2;28,36;19,39;12%
Vattenfall;2018;15287,59;1170,47;1717,54;3347,64;45111,36;10102,29;4654,21;0,23;0,7;0,05;;;;;;;9,41;7,22;2,81;11,69;19910;31,6;55;8,2;35,5;20%
RWE;2018;13388;335;619;1538;80108;14257;7419;0,15;0,34;0,04;;;;0,86;0,13;0,01;31,8;2,77;4,29;2,84;17748;141,8;21,8;9,9;2,5;62%
Verbund;2018;2671;342;655;864;11704;5941;2560;0,75;0;0;;;;;;;;;0,42;8,22;;0;0;0,83;29,52;37%
Enel;2018;75672;6350;9900;16351;165424;47852;41089;0,57;0,64;0,24;;;;;;;43,1;3,32;11,36;27,84;69272;127,33;24,07;33,05;65,89;8%
EON;2018;30253;1505;2989;4840;54324;8518;16580;0,1;0,56;0,01;;;;;;;0;4,15;5,33;0;43302;0;31,2;14,7;0;15%
Innogy;2018;35181;-286;2099;3146;49874;9914;13133;0,71;0,42;0;;;;;;;0,08;;2,95;0,54;37374;1,2;0;7,2;2,4;-8%
Endesa;2018;20195;1417;1919;3627;31656;9181;5770;0,7;0,05;;;;;;0,3;0,7;12,87;3,32;1,82;4,71;;29;24,07;3,71;8,46;6%
Alpiq;2019;;;;;;;;;;;;;;;;;1,317;0,676;0,326;2,91;;;;;;
Vattenfall;2019;15710,52;1403,43;2090,93;4008,37;43150,06;10388,06;6151,74;0;0;0;OUI/NON;OUI/NON;;;;;6,73;7,2;3,3;11,7;;31,1;53,3;10,1;35,7;20%
SSE;2019;8581,01;1703,09;1603,6;2186,51;29786,07;6865,3;11031,38;0,08;0;0;OUI/NON;OUI/NON;;;;;6,73;0;3,77;1,159;20370;21,1;0;9,78;0;5%
EDF;2019;71317;5155;6760;16708;303284;46466;41133;0,68;0,4;;OUI/NON;OUI/NON;38400;0,84;0,15;0,01;21,9;73;10,3;21,6;161522;57,5;437,6;18,3;44,2;9%
EnBW;2019;18765;786,8;944,7;2432,5;43288;7445;6021;0,22;0;0;Non;Non;;;;;6,52;2,93;3,39;1,01;23293;16,79;21,03;9,03;0,96;13%
Fortum;2019;5447;1482;1110;1685;23364;13235;5260;0,73;0,31;;OUI/NON;OUI/NON;;0,51;0,43;0,06;5,69;2,82;1,04;4,68;8191;27,8;23,5;0,4;20,3;11%
CEZ Group;2019;8032,25;564,85;1029,55;2344,13;27446,84;9947,76;6281,45;0,53;0,33;0,05;;;;0,7;0,1;0,2;7,81;4,29;0,87;1,99;32400;29,41;30,25;2,65;2,32;-1%
Centrica;2019;26540,14;490,44;1054,63;2480,31;21337,56;2109,78;3738,83;0,04;0,46;0,49;OUI;OUI;0;;;;0;0;2,7;0;26932;4,2;10,2;0;0;-1%
EDP;2019;14333,01;512;1838;3706;42361,65;12632;13827;0,86;0,54;0,31;OUI/NON;OUI/NON;;;;;6,88;0,2;10,81;8,79;;22,53;1,2;30,04;14,1;12%
Innogy;2019;35434;664;1615;2900;48464;8824;14161;0,72;0,43;0;OUI;OUI;;;0,1;0,9;0,1;;3,18;0,54;34523;1,1;0;7,9;2,7;-8%
RWE;2019;13125;8498;1267;2489;64192;17448;9298;0,16;0,37;0,03;OUI/NON;OUI/NON;;0,86;0,13;0,01;28,19;2,77;9,18;2,36;19792;113,3;21,2;16,4;1,8;62%
Iberdrola;2019;36437,91;3406,31;5877;10104;122369;32539,98;38395,2;;0,6;0,57;OUI/NON;OUI/NON;;0,08;;;16,77;3,18;18,87;13,17;35374;68,68;23,74;40,74;18,56;0%
Verbund;2019;3895;549;865;1183;11838;6568;2256;0,82;;;OUI (P62);Non;;0,51;0,2;0,29;;;0,42;8,22;3417;0;0;0,93;30,66;37%
Enel;2019;80327;3476;6878;17704;171426;46938;45175;0,5;0,67;0,2;OUI;OUI;;;;;38,86;3,29;14,33;27,82;68253;103,32;26,34;36,89;62,54;8%
EON;2019;41484;1536;3235;5558;98566;13085;39430;0,07;0,51;0,01;OUI/NON;OUI/NON;;;;;;3,83;5,74;1,35;78948;0;30,1;10,9;0;15%
Engie;2019;60058;2683;5726;10366;159793;38037;25919;;0,59;0,21;OUI/NON;OUI/NON;;0,24;0,69;0,08;60,02;5,81;11,62;19,36;160000;283,56;41,7;25,02;70,89;12%
Endesa;2019;20158;171;388;3841;31981;7837;6377;0,68;0,05;;OUI/NON;OUI/NON;;;0,3;0,7;11,18;3,32;2,74;4,67;9706;13,35;26,28;4,23;5,86;6%
Orsted;2019;9,080108964;0,808941048;1,345379784;2,340093528;25,81276812;11,9871572;2,30609766;0,602665016;0,755210636;0,98;OUI;OUI;;;;;0;0;9,9;0;;0;0;20,1;0;-8%
Vattenfall;2020;15811,63038;2567,1366;;4629,30678;;;4795,63812;0,567420222;0,634705094;0;;;;;;;6,8545;6,318;3,6;11,475;;23,4;39,3;10,8;39,7;20%
SSE;2020;;;;2455;;;9971;;;;;;;;;;5,364;0;2,815;1,159;;;;;;5%
EDF;2020;69031;650;;16174;;;42290;0,664368182;0,354072808;0,035056714;;;;;;;19,633;71,192;8,47;21,23;;48,8;384;20,2;48,8;9%
EnBW;2020;19900;596;;2460;;;8487;;0,169;0,075;;;;;;;6,398;1,223;3,358;1,507;;;;;;13%
Fortum;2020;49015;1832;;2688;;;7023;0,417396006;;0,457431399;;;;;;;36,589;4,848;0,42;8,44;;77,7;28,6;2,7;32,5;11%
CEZ Group;2020;8260;210;;2504;;;5546;0,534;0,297;0,028;;;;;;;6,535;4,29;1,12;2,274;;;30,2;;;-1%
Centrica;2020;13727,4543;1072,5099;;1832,3445;;;3359,8586;0,058012899;0,200996;0,120173075;;;;;;;0;0;2,6;0;;3,1;9,1;0;0;-1%
EDP;2020;12448;801;;3657;;;12243;0,86;0,538;0,311;;;;;;;1,97;0,156;16,554;7,126;;5,821;1,196;64,318;18,792;12%
RWE;2020;13688;995;;3235;;;4432;;0,631;0,414;;;;;;;25,106;2,77;10,148;2,358;;94,164;20,682;27,719;1,981;62%
Iberdrola;2020;37310;3611;;10715;;;35925;;0,366;0,634;;;;;;;17,011;3,177;18,872;13,17;;;;;;0%
Verbund;2020;3235;631;;1293;;;1237;0,792;0,502;0,043;;;;;;;;;1,268;8,267;;;;1,612;31,525;37%
Enel;2020;64985;2174;;8368;;;45415;;0,66;0,204;;;;;;;35,623;3,328;17,196;27,82;;103;;99;;8%
EON;2020;60944;1017;;6905;;;40736;0,736;0,487;0,267;;;;;;;0;3,828;8,8;1,35;;;;;;15%
Engie;2020;55751;-1536;;9276;;;22458;;0,597;0,254;;;;;;;56,749;6,163;13,596;21,197;;;;;;12%
Endesa;2020;2866;2312;;2452;;;3425;;;;;;;;;;11,187;3,453;3,032;4,793;;17,015;25,839;5,734;7,681;6%
Orsted;2020;7068,52238;2577,13964;;2435,50312;;;1658,65234;;;;;;;;;;4,4;0;9,24;0;;4,438;0;20,9;0;-8%
Alpiq;2020;3606,7361;101,5982;;241,98844;;;229,98138;;;;;;;;;;1,317;0,676;0,326;2,91;;3,134;5,333;0,521;4,702;#N/A
Repower;2020;1560;37;;116;;;;;;;;;;;;;;;;;;1,162;0,216;0,232;1,341;-8%
BKW;2020;2711,471234;353,192288;;627,13798;;;463,65724;;;;;;;;;;62,4;373;531,6;203,4;;1,2;2,2;1,8;3,8;#N/A
Axpo;2020;;;;;;;;;;;;;;;;;;;;;;;;;;
